{
  "collectionName": "components_article_texts",
  "info": {
    "displayName": "text",
    "icon": "align-justify"
  },
  "options": {},
  "attributes": {
    "title": {
      "type": "string"
    },
    "text": {
      "type": "richtext",
      "required": true
    }
  }
}
