{
  "kind": "collectionType",
  "collectionName": "messages",
  "info": {
    "singularName": "message",
    "pluralName": "messages",
    "displayName": "message",
    "description": ""
  },
  "options": {
    "draftAndPublish": false
  },
  "pluginOptions": {},
  "attributes": {
    "email": {
      "type": "string"
    },
    "message": {
      "type": "richtext",
      "required": true
    },
    "name": {
      "type": "string"
    },
    "failed": {
      "type": "boolean",
      "default": false,
      "private": true
    }
  }
}
